<?php																	
if ($getprice == "2000") {
    $net = "
    border:none;
    width: 1181px;
    height:189px;
    background: url('https://gitlab.com/mcmohann/heyhan-wifi/-/raw/main/2000.png') no-repeat;
    background-size:contain;
    ";
} elseif ($getprice == "3000") {
    $net = "
    border:none;
	margin-right: 34px;
	margin-bottom: 30px;
    width: 1181px;
    height:189px;
    background: url('https://gitlab.com/mcmohann/heyhan-wifi/-/raw/main/3000.png') no-repeat;
    background-size:contain;
    ";
} elseif ($getprice == "5000") {
    $net = "
    border:none;
    width: 1181px;
    height:189px;
    background: url('https://gitlab.com/mcmohann/heyhan-wifi/-/raw/main/5000.png') no-repeat;
    background-size:contain;
    ";
}
?>

<tr>
    <td style="color:#666;border-collapse: collapse;" valign="top">
        <table class="voucher" style="<?php echo $net ?>">
            <tbody>
                <tr>
                    <td style="width:275px; padding-top: 46px; padding-left: 10px;" valign="top">
                        <div style="clear:both;color:#000;margin-top: 25px;margin-bottom:8px;">
							<div style="font-weight:bold;font-size:87px;">
                                <div style="font-weight:bold;font-size:48px;">
									<center><?php echo $username; ?></center>
								</div>
							</div>
                        </div>
                    </td>
                </tr>
            </tbody>
        </table>
    </td>
</tr>	        	        	        	        	      	        	        	        	        	        	        	        	        	        	        	        	        	        	        	        	        	        	        	        	        	        	        	        	        	        	        	        	        	        	        	        	        	        	        	        	        	        	        	        	        	        	        	        	        	        	        	        	        